Crawling_Project
…
()   

star_date_bar <- star_date %>%
  group_by(time, score) %>%
  summarise(score_freq = n()) %>%
  arrange(time, score)
star_date_bar

## # A tibble: 30 x 3
## # Groups:   time [3]
##    time    score score_freq
##    <chr>   <fct>      <int>
##  1 7 2 10          1110
##  2 7 2 9            128
##  3 7 2 8            138
##  4 7 2 7             55
##  5 7 2 6             85
##  6 7 2 5             20
##  7 7 2 4             29
##  8 7 2 3              4
##  9 7 2 2             43
## 10 7 2 1             59
## # ... with 20 more rows

star_date_bar2 <- star_date_bar %>%  
  mutate(pct = score_freq/sum(score_freq)*100) %>%
  mutate(ylabel_b = str_c(score, " (", format(pct, digits=2), "%)")) %>%
  arrange(desc(score)) %>%
  mutate(ypos = cumsum(score_freq) - 0.5*score_freq) %>%
  arrange(time, desc(score))
star_date_bar2

## # A tibble: 30 x 6
## # Groups:   time [3]
##    time    score score_freq    pct ylabel_b        ypos
##    <chr>   <fct>      <int>  <dbl> <chr>          <dbl>
##  1 7 2 1             59  3.53  1 ( 3.53%)    29.5
##  2 7 2 2             43  2.57  2 ( 2.57%)    80.5
##  3 7 2 3              4  0.239 3 ( 0.24%)   104  
##  4 7 2 4             29  1.74  4 ( 1.74%)   120. 
##  5 7 2 5             20  1.20  5 ( 1.20%)   145  
##  6 7 2 6             85  5.09  6 ( 5.09%)   198. 
##  7 7 2 7             55  3.29  7 ( 3.29%)   268. 
##  8 7 2 8            138  8.26  8 ( 8.26%)   364  
##  9 7 2 9            128  7.66  9 ( 7.66%)   497  
## 10 7 2 10          1110 66.4   10 (66.43%) 1116  
## # ... with 20 more rows
…
(1)  

star_hour_line1 <- star_date2 %>%
  group_by(time) %>%
  summarise(avg_score = mean(score))
star_hour_line1

## # A tibble: 58 x 2
##    time         avg_score
##    <chr>            <dbl>
##  1 7 2 10      8.54
##  2 7 2 11      8.77
##  3 7 2 12      8.68
##  4 7 2 13      8.72
##  5 7 2 14      8.87
##  6 7 2 15      9.24
##  7 7 2 16      8.90
##  8 7 2 17      8.71
##  9 7 2 18      8.61
## 10 7 2 19      8.62
## # ... with 48 more rows
…
star_date_bar <- star_date %>%
  group_by(time, score) %>%
  summarise(score_freq = n()) %>%
  arrange(time, score)
star_date_bar

## # A tibble: 26 x 3
## # Groups:   time [3]
##    time    score score_freq
##    <chr>   <fct>      <int>
##  1 7 2 10            87
##  2 7 2 9             13
##  3 7 2 8             13
##  4 7 2 7              6
##  5 7 2 6              7
##  6 7 2 5              4
##  7 7 2 4              2
##  8 7 2 3              1
##  9 7 2 2              2
## 10 7 2 1              2
## # ... with 16 more rows

star_date_bar2 <- star_date_bar %>%  
  mutate(pct = score_freq/sum(score_freq)*100) %>%
  mutate(ylabel_b = str_c(score, " (", format(pct, digits=2), "%)")) %>%
  arrange(desc(score)) %>%
  mutate(ypos = cumsum(score_freq) - 0.5*score_freq) %>%
  arrange(time, desc(score))
star_date_bar2

## # A tibble: 26 x 6
## # Groups:   time [3]
##    time    score score_freq    pct ylabel_b       ypos
##    <chr>   <fct>      <int>  <dbl> <chr>         <dbl>
##  1 7 2 1              2  1.46  1 ( 1.46%)    1  
##  2 7 2 2              2  1.46  2 ( 1.46%)    3  
##  3 7 2 3              1  0.730 3 ( 0.73%)    4.5
##  4 7 2 4              2  1.46  4 ( 1.46%)    6  
##  5 7 2 5              4  2.92  5 ( 2.92%)    9  
##  6 7 2 6              7  5.11  6 ( 5.11%)   14.5
##  7 7 2 7              6  4.38  7 ( 4.38%)   21  
##  8 7 2 8             13  9.49  8 ( 9.49%)   30.5
##  9 7 2 9             13  9.49  9 ( 9.49%)   43.5
## 10 7 2 10            87 63.5   10 (63.50%)  93.5
## # ... with 16 more rows
…
star_hour_line1 <- star_date2 %>%
  group_by(time) %>%
  summarise(avg_score = mean(score))
star_hour_line1

## # A tibble: 68 x 2
##    time         avg_score
##    <chr>            <dbl>
##  1 7 2 0       4   
##  2 7 2 10      7.92
##  3 7 2 11      9.57
##  4 7 2 12      9.33
##  5 7 2 13      8.62
##  6 7 2 14      8.6 
##  7 7 2 15      9   
##  8 7 2 16      9   
##  9 7 2 17      7.62
## 10 7 2 18      8.2 
## # ... with 58 more rows
…
star_date_bar <- star_date %>%
  group_by(time, score) %>%
  summarise(score_freq = n()) %>%
  arrange(time, score)
star_date_bar

## # A tibble: 26 x 3
## # Groups:   time [3]
##    time    score score_freq
##    <chr>   <fct>      <int>
##  1 7 2 10           191
##  2 7 2 9             12
##  3 7 2 8             26
##  4 7 2 7              9
##  5 7 2 6              9
##  6 7 2 5              1
##  7 7 2 2              1
##  8 7 2 1              4
##  9 7 3 10           190
## 10 7 3 9             17
## # ... with 16 more rows

star_date_bar2 <- star_date_bar %>%  
  mutate(pct = score_freq/sum(score_freq)*100) %>%
  mutate(ylabel_b = str_c(score, " (", format(pct, digits=2), "%)")) %>%
  arrange(desc(score)) %>%
  mutate(ypos = cumsum(score_freq) - 0.5*score_freq) %>%
  arrange(time, desc(score))
star_date_bar2

## # A tibble: 26 x 6
## # Groups:   time [3]
##    time    score score_freq    pct ylabel_b      ypos
##    <chr>   <fct>      <int>  <dbl> <chr>        <dbl>
##  1 7 2 1              4  1.58  1 ( 1.6%)    2  
##  2 7 2 2              1  0.395 2 ( 0.4%)    4.5
##  3 7 2 5              1  0.395 5 ( 0.4%)    5.5
##  4 7 2 6              9  3.56  6 ( 3.6%)   10.5
##  5 7 2 7              9  3.56  7 ( 3.6%)   19.5
##  6 7 2 8             26 10.3   8 (10.3%)   37  
##  7 7 2 9             12  4.74  9 ( 4.7%)   56  
##  8 7 2 10           191 75.5   10 (75.5%) 158. 
##  9 7 3 1              2  0.816 1 ( 0.82%)   1  
## 10 7 3 3              1  0.408 3 ( 0.41%)   2.5
## # ... with 16 more rows
…
star_hour_line1 <- star_date2 %>%
  group_by(time) %>%
  summarise(avg_score = mean(score))
star_hour_line1

## # A tibble: 67 x 2
##    time         avg_score
##    <chr>            <dbl>
##  1 7 2 0       9.25
##  2 7 2 10      9.12
##  3 7 2 11      9.38
##  4 7 2 12      9.82
##  5 7 2 13      9.69
##  6 7 2 14      9.87
##  7 7 2 15      9.73
##  8 7 2 16      9.38
##  9 7 2 17      7.8 
## 10 7 2 18      8.57
## # ... with 57 more rows
…
